[
    {
        "school":"Slovak Technical University",
        "degree":"Master of Science",
        "major":"Computer Science - Software Engineering",
        "notes":"With Honors",
        "range":""
    },
    {
        "school":"AWS Certified Solution Architect",
        "degree":"Associate",
        "major":"",
        "range":"2018"
    },
    {
        "school":"AWS Certified Solution Developer",
        "degree":"Associate",
        "major":"",
        "range":"2019"
    },
    {
        "school":"Oracle ATG Web Commerce",
        "degree":"Commerce Suite Certified Implementation Specialist",
        "major":"",
        "range":"2011"
    },
    {
        "school":"Sun Certifications - Java",
        "degree":"Enterprise Architect, Java Developer, Web Component Developer",
        "major":"",
        "range":""
    }
]
