[
    {
        "role":"English - C2",
        "summary":"Lived in English speaking country for 18 years"
    },
    {
        "role":"German - C1",
        "summary":"fluent, lived/worked in German speaking countries for over 4 years"
    },
    {
        "role":"Spanish - B2/C1",
        "summary":"living in Spain for 3+ years"
    },
    {
        "role":"Slovak - native",
        "summary":""
    },
    {
        "role":"Czech - native/bilingual",
        "summary":"Grew up bilingual Czech+Slovak"
    },
    {
        "role":"Russian - A2-B1",
        "summary":"Mostly passive"
    },
    {
        "role":"Hungarian - A1",
        "summary":"Passive"
    },
    {
        "role":"Italian - A1",
        "summary":"Passive"
    },
    {
        "role":"Dual citizenship: Canada and EU (Slovak Republic)",
        "summary":"Able to work legally in any EU state and Canada"
    }

]
